[{"page": 1, "pages": 16, "per_page": 50, "total": 768, "sourceid": "2", "lastupdated": "2024-05-30"}, [{"indicator": {"id": "NY.GDP.MKTP.CD", "value": "GDP (current US$)"}, "country": {"id": "AR", "value": "Argentina"}, "countryiso3code": "ARG", "date": "2023", "value": null, "unit": "", "obs_status": "", "decimal": 0}, {"indicator": {"id": "NY.GDP.MKTP.CD", "value": "GDP (current US$)"}, "country": {"id": "AR", "value": "Argentina"}, "countryiso3code": "ARG", "date": "2022", "value": 631133384439.944, "unit": "", "obs_status": "", "decimal": 0}, {"indicator": {"id": "NY.GDP.MKTP.CD", "value": "GDP (current US$)"}, "country": {"id": "AR", "value": "Argentina"}, "countryiso3code": "ARG", "date": "2021", "value": 487902572164.348, "unit": "", "obs_status": "", "decimal": 0}, {"indicator": {"id": "NY.GDP.MKTP.CD", "value": "GDP (current US$)"}, "country": {"id": "AR", "value": "Argentina"}, "countryiso3code": "ARG", "date": "2020", "value": 385740508436.965, "unit": "", "obs_status": "", "decimal": 0}, {"indicator": {"id": "NY.GDP.MKTP.CD", "value": "GDP (current US$)"}, "country": {"id": "AR", "value": "Argentina"}, "countryiso3code": "ARG", "date": "2019", "value": 447754683615.225, "unit": "", "obs_status": "", "decimal": 0}, {"indicator": {"id": "NY.GDP.MKTP.CD", "value": "GDP (current US$)"}, "country": {"id": "AR", "value": "Argentina"}, "countryiso3code": "ARG", "date": "2018", "value": 524819892360.176, "unit": "", "obs_status": "", "decimal": 0}, {"indicator": {"id": "NY.GDP.MKTP.CD", "value": "GDP (current US$)"}, "country": {"id": "AR", "value": "Argentina"}, "countryiso3code": "ARG", "date": "2017", "value": 643628393281.364, "unit": "", "obs_status": "", "decimal": 0}, {"indicator": {"id": "NY.GDP.MKTP.CD", "value": "GDP (current US$)"}, "country": {"id": "AR", "value": "Argentina"}, "countryiso3code": "ARG", "date": "2016", "value": 557532320662.955, "unit": "", "obs_status": "", "decimal": 0}, {"indicator": {"id": "NY.GDP.MKTP.CD", "value": "GDP (current US$)"}, "country": {"id": "AR", "value": "Argentina"}, "countryiso3code": "ARG", "date": "2015", "value": 594749285413.212, "unit": "", "obs_status": "", "decimal": 0}, {"indicator": {"id": "NY.GDP.MKTP.CD", "value": "GDP (current US$)"}, "country": {"id": "AR", "value": "Argentina"}, "countryiso3code": "ARG", "date": "2014", "value": 526319673731.638, "unit": "", "obs_status": "", "decimal": 0}, {"indicator": {"id": "NY.GDP.MKTP.CD", "value": "GDP (current US$)"}, "country": {"id": "AR", "value": "Argentina"}, "countryiso3code": "ARG", "date": "2013", "value": 552025140252.246, "unit": "", "obs_status": "", "decimal": 0}, {"indicator": {"id": "NY.GDP.MKTP.CD", "value": "GDP (current US$)"}, "country": {"id": "AR", "value": "Argentina"}, "countryiso3code": "ARG", "date": "2012", "value": 545982375701.128, "unit": "", "obs_status": "", "decimal": 0}, {"indicator": {"id": "NY.GDP.MKTP.CD", "value": "GDP (current US$)"}, "country": {"id": "AR", "value": "Argentina"}, "countryiso3code": "ARG", "date": "2011", "value": 530158122010.442, "unit": "", "obs_status": "", "decimal": 0}, {"indicator": {"id": "NY.GDP.MKTP.CD", "value": "GDP (current US$)"}, "country": {"id": "AR", "value": "Argentina"}, "countryiso3code": "ARG", "date": "2010", "value": 423627422092.49, "unit": "", "obs_status": "", "decimal": 0}, {"indicator": {"id": "NY.GDP.MKTP.CD", "value": "GDP (current US$)"}, "country": {"id": "AR", "value": "Argentina"}, "countryiso3code": "ARG", "date": "2009", "value": 332976484577.619, "unit": "", "obs_status": "", "decimal": 0}, {"indicator": {"id": "NY.GDP.MKTP.CD", "value": "GDP (current US$)"}, "country": {"id": "AR", "value": "Argentina"}, "countryiso3code": "ARG", "date": "2008", "value": 361558037110.419, "unit": "", "obs_status": "", "decimal": 0}, {"indicator": {"id": "NY.GDP.MKTP.CD", "value": "GDP (current US$)"}, "country": {"id": "AR", "value": "Argentina"}, "countryiso3code": "ARG", "date": "2007", "value": 287530508430.568, "unit": "", "obs_status": "", "decimal": 0}, {"indicator": {"id": "NY.GDP.MKTP.CD", "value": "GDP (current US$)"}, "country": {"id": "AR", "value": "Argentina"}, "countryiso3code": "ARG", "date": "2006", "value": 232557260817.308, "unit": "", "obs_status": "", "decimal": 0}, {"indicator": {"id": "NY.GDP.MKTP.CD", "value": "GDP (current US$)"}, "country": {"id": "AR", "value": "Argentina"}, "countryiso3code": "ARG", "date": "2005", "value": 198737095012.282, "unit": "", "obs_status": "", "decimal": 0}, {"indicator": {"id": "NY.GDP.MKTP.CD", "value": "GDP (current US$)"}, "country": {"id": "AR", "value": "Argentina"}, "countryiso3code": "ARG", "date": "2004", "value": 164657930452.787, "unit": "", "obs_status": "", "decimal": 0}, {"indicator": {"id": "NY.GDP.MKTP.CD", "value": "GDP (current US$)"}, "country": {"id": "AR", "value": "Argentina"}, "countryiso3code": "ARG", "date": "2003", "value": 127586973492.177, "unit": "", "obs_status": "", "decimal": 0}, {"indicator": {"id": "NY.GDP.MKTP.CD", "value": "GDP (current US$)"}, "country": {"id": "AR", "value": "Argentina"}, "countryiso3code": "ARG", "date": "2002", "value": 97724004251.8602, "unit": "", "obs_status": "", "decimal": 0}, {"indicator": {"id": "NY.GDP.MKTP.CD", "value": "GDP (current US$)"}, "country": {"id": "AR", "value": "Argentina"}, "countryiso3code": "ARG", "date": "2001", "value": 268696750000, "unit": "", "obs_status": "", "decimal": 0}, {"indicator": {"id": "NY.GDP.MKTP.CD", "value": "GDP (current US$)"}, "country": {"id": "AR", "value": "Argentina"}, "countryiso3code": "ARG", "date": "2000", "value": 284203750000, "unit": "", "obs_status": "", "decimal": 0}, {"indicator": {"id": "NY.GDP.MKTP.CD", "value": "GDP (current US$)"}, "country": {"id": "AR", "value": "Argentina"}, "countryiso3code": "ARG", "date": "1999", "value": 283523000000, "unit": "", "obs_status": "", "decimal": 0}, {"indicator": {"id": "NY.GDP.MKTP.CD", "value": "GDP (current US$)"}, "country": {"id": "AR", "value": "Argentina"}, "countryiso3code": "ARG", "date": "1998", "value": 298948250000, "unit": "", "obs_status": "", "decimal": 0}, {"indicator": {"id": "NY.GDP.MKTP.CD", "value": "GDP (current US$)"}, "country": {"id": "AR", "value": "Argentina"}, "countryiso3code": "ARG", "date": "1997", "value": 292859000000, "unit": "", "obs_status": "", "decimal": 0}, {"indicator": {"id": "NY.GDP.MKTP.CD", "value": "GDP (current US$)"}, "country": {"id": "AR", "value": "Argentina"}, "countryiso3code": "ARG", "date": "1996", "value": 272149750000, "unit": "", "obs_status": "", "decimal": 0}, {"indicator": {"id": "NY.GDP.MKTP.CD", "value": "GDP (current US$)"}, "country": {"id": "AR", "value": "Argentina"}, "countryiso3code": "ARG", "date": "1995", "value": 258031750000, "unit": "", "obs_status": "", "decimal": 0}, {"indicator": {"id": "NY.GDP.MKTP.CD", "value": "GDP (current US$)"}, "country": {"id": "AR", "value": "Argentina"}, "countryiso3code": "ARG", "date": "1994", "value": 257440000000, "unit": "", "obs_status": "", "decimal": 0}, {"indicator": {"id": "NY.GDP.MKTP.CD", "value": "GDP (current US$)"}, "country": {"id": "AR", "value": "Argentina"}, "countryiso3code": "ARG", "date": "1993", "value": 236741715015.015, "unit": "", "obs_status": "", "decimal": 0}, {"indicator": {"id": "NY.GDP.MKTP.CD", "value": "GDP (current US$)"}, "country": {"id": "AR", "value": "Argentina"}, "countryiso3code": "ARG", "date": "1992", "value": 228778917308.17, "unit": "", "obs_status": "", "decimal": 0}, {"indicator": {"id": "NY.GDP.MKTP.CD", "value": "GDP (current US$)"}, "country": {"id": "AR", "value": "Argentina"}, "countryiso3code": "ARG", "date": "1991", "value": 189719984268.485, "unit": "", "obs_status": "", "decimal": 0}, {"indicator": {"id": "NY.GDP.MKTP.CD", "value": "GDP (current US$)"}, "country": {"id": "AR", "value": "Argentina"}, "countryiso3code": "ARG", "date": "1990", "value": 141352654305.163, "unit": "", "obs_status": "", "decimal": 0}, {"indicator": {"id": "NY.GDP.MKTP.CD", "value": "GDP (current US$)"}, "country": {"id": "AR", "value": "Argentina"}, "countryiso3code": "ARG", "date": "1989", "value": 76629657863.6557, "unit": "", "obs_status": "", "decimal": 0}, {"indicator": {"id": "NY.GDP.MKTP.CD", "value": "GDP (current US$)"}, "country": {"id": "AR", "value": "Argentina"}, "countryiso3code": "ARG", "date": "1988", "value": 126928000000, "unit": "", "obs_status": "", "decimal": 0}, {"indicator": {"id": "NY.GDP.MKTP.CD", "value": "GDP (current US$)"}, "country": {"id": "AR", "value": "Argentina"}, "countryiso3code": "ARG", "date": "1987", "value": 109029439252.336, "unit": "", "obs_status": "", "decimal": 0}, {"indicator": {"id": "NY.GDP.MKTP.CD", "value": "GDP (current US$)"}, "country": {"id": "AR", "value": "Argentina"}, "countryiso3code": "ARG", "date": "1986", "value": 106213829787.234, "unit": "", "obs_status": "", "decimal": 0}, {"indicator": {"id": "NY.GDP.MKTP.CD", "value": "GDP (current US$)"}, "country": {"id": "AR", "value": "Argentina"}, "countryiso3code": "ARG", "date": "1985", "value": 88416666666.6667, "unit": "", "obs_status": "", "decimal": 0}, {"indicator": {"id": "NY.GDP.MKTP.CD", "value": "GDP (current US$)"}, "country": {"id": "AR", "value": "Argentina"}, "countryiso3code": "ARG", "date": "1984", "value": 112988571428.571, "unit": "", "obs_status": "", "decimal": 0}, {"indicator": {"id": "NY.GDP.MKTP.CD", "value": "GDP (current US$)"}, "country": {"id": "AR", "value": "Argentina"}, "countryiso3code": "ARG", "date": "1983", "value": 109490000000, "unit": "", "obs_status": "", "decimal": 0}, {"indicator": {"id": "NY.GDP.MKTP.CD", "value": "GDP (current US$)"}, "country": {"id": "AR", "value": "Argentina"}, "countryiso3code": "ARG", "date": "1982", "value": null, "unit": "", "obs_status": "", "decimal": 0}, {"indicator": {"id": "NY.GDP.MKTP.CD", "value": "GDP (current US$)"}, "country": {"id": "AR", "value": "Argentina"}, "countryiso3code": "ARG", "date": "1981", "value": null, "unit": "", "obs_status": "", "decimal": 0}, {"indicator": {"id": "NY.GDP.MKTP.CD", "value": "GDP (current US$)"}, "country": {"id": "AR", "value": "Argentina"}, "countryiso3code": "ARG", "date": "1980", "value": null, "unit": "", "obs_status": "", "decimal": 0}, {"indicator": {"id": "NY.GDP.MKTP.CD", "value": "GDP (current US$)"}, "country": {"id": "AR", "value": "Argentina"}, "countryiso3code": "ARG", "date": "1979", "value": null, "unit": "", "obs_status": "", "decimal": 0}, {"indicator": {"id": "NY.GDP.MKTP.CD", "value": "GDP (current US$)"}, "country": {"id": "AR", "value": "Argentina"}, "countryiso3code": "ARG", "date": "1978", "value": null, "unit": "", "obs_status": "", "decimal": 0}, {"indicator": {"id": "NY.GDP.MKTP.CD", "value": "GDP (current US$)"}, "country": {"id": "AR", "value": "Argentina"}, "countryiso3code": "ARG", "date": "1977", "value": null, "unit": "", "obs_status": "", "decimal": 0}, {"indicator": {"id": "NY.GDP.MKTP.CD", "value": "GDP (current US$)"}, "country": {"id": "AR", "value": "Argentina"}, "countryiso3code": "ARG", "date": "1976", "value": null, "unit": "", "obs_status": "", "decimal": 0}, {"indicator": {"id": "NY.GDP.MKTP.CD", "value": "GDP (current US$)"}, "country": {"id": "AR", "value": "Argentina"}, "countryiso3code": "ARG", "date": "1975", "value": null, "unit": "", "obs_status": "", "decimal": 0}, {"indicator": {"id": "NY.GDP.MKTP.CD", "value": "GDP (current US$)"}, "country": {"id": "AR", "value": "Argentina"}, "countryiso3code": "ARG", "date": "1974", "value": null, "unit": "", "obs_status": "", "decimal": 0}]]